{"status": "ok", "total_hits": 10000, "page": 1, "total_pages": 10000, "page_size": 1, "articles": [{"title": "Tesla Opens Half Its Superchargers to Other EVs, Which Is a Big Deal", "author": "Zachariah Kelly", "published_date": "2023-08-30 05:57:54", "published_date_precision": "full", "link": "https://gizmodo.com.au/2023/08/tesla-superchargers-non-tesla/", "clean_url": "gizmodo.com.au", "excerpt": "30 Tesla superchargers across Australia are now open to non-Tesla drivers, building on the five that were opened up in January.", "summary": "Tesla has unlocked about half of its supercharger network for non-Tesla EVs in Australia. \n \nAs originally reported by \nThe Driven\n, 30 of Tesla's 63 supercharger sites are now accessible by non-Tesla EVs, meaning if you own an electric car from Polestar, MG, BYD, or any other EV-maker that uses a CCS2 port, you could top up at Tesla's most powerful charging stations \u2013 provided it's one of the 30 stations opened up to other EVs, of course.\n \nTesla operates one of the biggest charging networks in Australia, from superchargers (which provide much faster speeds) to destination chargers (which are slower but also smaller and easier to install), however up until January of this year, they've all been locked to Tesla owners only.", "rights": "gizmodo.com.au", "rank": 4519, "topic": "news", "country": "AU", "language": "en", "authors": "-Wp--Preset--Color--Primary,Hover Color,None,Not .Wp-Element-Button,Sans-Serif,Text-Decoration,Var,Zachariah Kelly", "media": "https://gizmodo.com.au/wp-content/uploads/2023/02/superchargers-non-tesla.png?quality=75", "is_opinion": false, "twitter_account": "@GizmodoAU", "_score": 12.810454, "_id": "5aca798288e16fe52905cec4186ee1b3"}], "user_input": {"q": "Tesla", "search_in": ["title_summary_en"], "lang": ["en"], "not_lang": null, "countries": null, "not_countries": null, "from": "2023-08-15 00:00:00", "to": null, "ranked_only": "True", "from_rank": null, "to_rank": null, "sort_by": "relevancy", "page": 1, "size": 1, "sources": null, "not_sources": [], "topic": null, "published_date_precision": null}}